openmp_run_results 000a-010m-010n-024p-001th: compute_time=0.001327861 s  numproc=24 numthreads=1 m=10 n=10 alpha=0.25000000000000 omega=1.00000000000000 tol=8.0000e-08 it_max=20000 jacobi_alg=0
openmp_run_results 000a-010m-010n-024p-002th: compute_time=0.001825814 s  numproc=24 numthreads=2 m=10 n=10 alpha=0.25000000000000 omega=1.00000000000000 tol=8.0000e-08 it_max=20000 jacobi_alg=0
openmp_run_results 000a-010m-010n-024p-004th: compute_time=0.002236415 s  numproc=24 numthreads=4 m=10 n=10 alpha=0.25000000000000 omega=1.00000000000000 tol=8.0000e-08 it_max=20000 jacobi_alg=0
openmp_run_results 000a-010m-010n-024p-008th: compute_time=0.002764022 s  numproc=24 numthreads=8 m=10 n=10 alpha=0.25000000000000 omega=1.00000000000000 tol=8.0000e-08 it_max=20000 jacobi_alg=0
openmp_run_results 000a-010m-010n-024p-016th: compute_time=0.004484433 s  numproc=24 numthreads=16 m=10 n=10 alpha=0.25000000000000 omega=1.00000000000000 tol=8.0000e-08 it_max=20000 jacobi_alg=0
openmp_run_results 000a-010m-010n-024p-024th: compute_time=0.029526358 s  numproc=24 numthreads=24 m=10 n=10 alpha=0.25000000000000 omega=1.00000000000000 tol=8.0000e-08 it_max=20000 jacobi_alg=0
openmp_run_results 000a-020m-020n-024p-001th: compute_time=0.010010139 s  numproc=24 numthreads=1 m=20 n=20 alpha=0.25000000000000 omega=1.00000000000000 tol=8.0000e-08 it_max=20000 jacobi_alg=0
openmp_run_results 000a-020m-020n-024p-002th: compute_time=0.012512646 s  numproc=24 numthreads=2 m=20 n=20 alpha=0.25000000000000 omega=1.00000000000000 tol=8.0000e-08 it_max=20000 jacobi_alg=0
openmp_run_results 000a-020m-020n-024p-004th: compute_time=0.010873873 s  numproc=24 numthreads=4 m=20 n=20 alpha=0.25000000000000 omega=1.00000000000000 tol=8.0000e-08 it_max=20000 jacobi_alg=0
openmp_run_results 000a-020m-020n-024p-008th: compute_time=0.010075947 s  numproc=24 numthreads=8 m=20 n=20 alpha=0.25000000000000 omega=1.00000000000000 tol=8.0000e-08 it_max=20000 jacobi_alg=0
openmp_run_results 000a-020m-020n-024p-016th: compute_time=0.013795669 s  numproc=24 numthreads=16 m=20 n=20 alpha=0.25000000000000 omega=1.00000000000000 tol=8.0000e-08 it_max=20000 jacobi_alg=0
openmp_run_results 000a-020m-020n-024p-024th: compute_time=0.016220931 s  numproc=24 numthreads=24 m=20 n=20 alpha=0.25000000000000 omega=1.00000000000000 tol=8.0000e-08 it_max=20000 jacobi_alg=0
openmp_run_results 000a-040m-040n-024p-001th: compute_time=0.126926829 s  numproc=24 numthreads=1 m=40 n=40 alpha=0.25000000000000 omega=1.00000000000000 tol=8.0000e-08 it_max=20000 jacobi_alg=0
openmp_run_results 000a-040m-040n-024p-002th: compute_time=0.080441800 s  numproc=24 numthreads=2 m=40 n=40 alpha=0.25000000000000 omega=1.00000000000000 tol=8.0000e-08 it_max=20000 jacobi_alg=0
openmp_run_results 000a-040m-040n-024p-004th: compute_time=0.047735209 s  numproc=24 numthreads=4 m=40 n=40 alpha=0.25000000000000 omega=1.00000000000000 tol=8.0000e-08 it_max=20000 jacobi_alg=0
openmp_run_results 000a-040m-040n-024p-008th: compute_time=0.038687754 s  numproc=24 numthreads=8 m=40 n=40 alpha=0.25000000000000 omega=1.00000000000000 tol=8.0000e-08 it_max=20000 jacobi_alg=0
openmp_run_results 000a-040m-040n-024p-016th: compute_time=0.054931697 s  numproc=24 numthreads=16 m=40 n=40 alpha=0.25000000000000 omega=1.00000000000000 tol=8.0000e-08 it_max=20000 jacobi_alg=0
openmp_run_results 000a-040m-040n-024p-024th: compute_time=0.060931487 s  numproc=24 numthreads=24 m=40 n=40 alpha=0.25000000000000 omega=1.00000000000000 tol=8.0000e-08 it_max=20000 jacobi_alg=0
openmp_run_results 000a-080m-080n-024p-001th: compute_time=1.217516106 s  numproc=24 numthreads=1 m=80 n=80 alpha=0.25000000000000 omega=1.00000000000000 tol=8.0000e-08 it_max=20000 jacobi_alg=0
openmp_run_results 000a-080m-080n-024p-002th: compute_time=0.611069915 s  numproc=24 numthreads=2 m=80 n=80 alpha=0.25000000000000 omega=1.00000000000000 tol=8.0000e-08 it_max=20000 jacobi_alg=0
openmp_run_results 000a-080m-080n-024p-004th: compute_time=0.319816852 s  numproc=24 numthreads=4 m=80 n=80 alpha=0.25000000000000 omega=1.00000000000000 tol=8.0000e-08 it_max=20000 jacobi_alg=0
openmp_run_results 000a-080m-080n-024p-008th: compute_time=0.197947180 s  numproc=24 numthreads=8 m=80 n=80 alpha=0.25000000000000 omega=1.00000000000000 tol=8.0000e-08 it_max=20000 jacobi_alg=0
openmp_run_results 000a-080m-080n-024p-016th: compute_time=0.218091784 s  numproc=24 numthreads=16 m=80 n=80 alpha=0.25000000000000 omega=1.00000000000000 tol=8.0000e-08 it_max=20000 jacobi_alg=0
openmp_run_results 000a-080m-080n-024p-024th: compute_time=0.213017890 s  numproc=24 numthreads=24 m=80 n=80 alpha=0.25000000000000 omega=1.00000000000000 tol=8.0000e-08 it_max=20000 jacobi_alg=0
openmp_run_results 000a-160m-160n-024p-001th: compute_time=9.206502688 s  numproc=24 numthreads=1 m=160 n=160 alpha=0.25000000000000 omega=1.00000000000000 tol=8.0000e-08 it_max=20000 jacobi_alg=0
openmp_run_results 000a-160m-160n-024p-002th: compute_time=4.663279350 s  numproc=24 numthreads=2 m=160 n=160 alpha=0.25000000000000 omega=1.00000000000000 tol=8.0000e-08 it_max=20000 jacobi_alg=0
openmp_run_results 000a-160m-160n-024p-004th: compute_time=2.398985390 s  numproc=24 numthreads=4 m=160 n=160 alpha=0.25000000000000 omega=1.00000000000000 tol=8.0000e-08 it_max=20000 jacobi_alg=0
openmp_run_results 000a-160m-160n-024p-008th: compute_time=1.311179919 s  numproc=24 numthreads=8 m=160 n=160 alpha=0.25000000000000 omega=1.00000000000000 tol=8.0000e-08 it_max=20000 jacobi_alg=0
openmp_run_results 000a-160m-160n-024p-016th: compute_time=1.213036313 s  numproc=24 numthreads=16 m=160 n=160 alpha=0.25000000000000 omega=1.00000000000000 tol=8.0000e-08 it_max=20000 jacobi_alg=0
openmp_run_results 000a-160m-160n-024p-024th: compute_time=0.984555589 s  numproc=24 numthreads=24 m=160 n=160 alpha=0.25000000000000 omega=1.00000000000000 tol=8.0000e-08 it_max=20000 jacobi_alg=0
openmp_run_results 000a-320m-320n-024p-001th: compute_time=5.210914654 s  numproc=24 numthreads=1 m=320 n=320 alpha=0.25000000000000 omega=1.00000000000000 tol=8.0000e-08 it_max=20000 jacobi_alg=0
openmp_run_results 000a-320m-320n-024p-002th: compute_time=2.639798606 s  numproc=24 numthreads=2 m=320 n=320 alpha=0.25000000000000 omega=1.00000000000000 tol=8.0000e-08 it_max=20000 jacobi_alg=0
openmp_run_results 000a-320m-320n-024p-004th: compute_time=1.326593284 s  numproc=24 numthreads=4 m=320 n=320 alpha=0.25000000000000 omega=1.00000000000000 tol=8.0000e-08 it_max=20000 jacobi_alg=0
openmp_run_results 000a-320m-320n-024p-008th: compute_time=0.701254715 s  numproc=24 numthreads=8 m=320 n=320 alpha=0.25000000000000 omega=1.00000000000000 tol=8.0000e-08 it_max=20000 jacobi_alg=0
openmp_run_results 000a-320m-320n-024p-016th: compute_time=0.610924536 s  numproc=24 numthreads=16 m=320 n=320 alpha=0.25000000000000 omega=1.00000000000000 tol=8.0000e-08 it_max=20000 jacobi_alg=0
openmp_run_results 000a-320m-320n-024p-024th: compute_time=0.462639443 s  numproc=24 numthreads=24 m=320 n=320 alpha=0.25000000000000 omega=1.00000000000000 tol=8.0000e-08 it_max=20000 jacobi_alg=0
openmp_run_results 001a-010m-010n-024p-001th: compute_time=0.000618853 s  numproc=24 numthreads=1 m=10 n=10 alpha=0.25000000000000 omega=1.00000000000000 tol=8.0000e-08 it_max=20000 jacobi_alg=1
openmp_run_results 001a-010m-010n-024p-002th: compute_time=0.001239066 s  numproc=24 numthreads=2 m=10 n=10 alpha=0.25000000000000 omega=1.00000000000000 tol=8.0000e-08 it_max=20000 jacobi_alg=1
openmp_run_results 001a-010m-010n-024p-004th: compute_time=0.001471314 s  numproc=24 numthreads=4 m=10 n=10 alpha=0.25000000000000 omega=1.00000000000000 tol=8.0000e-08 it_max=20000 jacobi_alg=1
openmp_run_results 001a-010m-010n-024p-008th: compute_time=0.002107781 s  numproc=24 numthreads=8 m=10 n=10 alpha=0.25000000000000 omega=1.00000000000000 tol=8.0000e-08 it_max=20000 jacobi_alg=1
openmp_run_results 001a-010m-010n-024p-016th: compute_time=0.004820196 s  numproc=24 numthreads=16 m=10 n=10 alpha=0.25000000000000 omega=1.00000000000000 tol=8.0000e-08 it_max=20000 jacobi_alg=1
openmp_run_results 001a-010m-010n-024p-024th: compute_time=0.009771289 s  numproc=24 numthreads=24 m=10 n=10 alpha=0.25000000000000 omega=1.00000000000000 tol=8.0000e-08 it_max=20000 jacobi_alg=1
openmp_run_results 001a-020m-020n-024p-001th: compute_time=0.007995041 s  numproc=24 numthreads=1 m=20 n=20 alpha=0.25000000000000 omega=1.00000000000000 tol=8.0000e-08 it_max=20000 jacobi_alg=1
openmp_run_results 001a-020m-020n-024p-002th: compute_time=0.011370533 s  numproc=24 numthreads=2 m=20 n=20 alpha=0.25000000000000 omega=1.00000000000000 tol=8.0000e-08 it_max=20000 jacobi_alg=1
openmp_run_results 001a-020m-020n-024p-004th: compute_time=0.009369043 s  numproc=24 numthreads=4 m=20 n=20 alpha=0.25000000000000 omega=1.00000000000000 tol=8.0000e-08 it_max=20000 jacobi_alg=1
openmp_run_results 001a-020m-020n-024p-008th: compute_time=0.010550865 s  numproc=24 numthreads=8 m=20 n=20 alpha=0.25000000000000 omega=1.00000000000000 tol=8.0000e-08 it_max=20000 jacobi_alg=1
openmp_run_results 001a-020m-020n-024p-016th: compute_time=0.018372967 s  numproc=24 numthreads=16 m=20 n=20 alpha=0.25000000000000 omega=1.00000000000000 tol=8.0000e-08 it_max=20000 jacobi_alg=1
openmp_run_results 001a-020m-020n-024p-024th: compute_time=0.017853131 s  numproc=24 numthreads=24 m=20 n=20 alpha=0.25000000000000 omega=1.00000000000000 tol=8.0000e-08 it_max=20000 jacobi_alg=1
openmp_run_results 001a-040m-040n-024p-001th: compute_time=0.100205085 s  numproc=24 numthreads=1 m=40 n=40 alpha=0.25000000000000 omega=1.00000000000000 tol=8.0000e-08 it_max=20000 jacobi_alg=1
openmp_run_results 001a-040m-040n-024p-002th: compute_time=0.083092988 s  numproc=24 numthreads=2 m=40 n=40 alpha=0.25000000000000 omega=1.00000000000000 tol=8.0000e-08 it_max=20000 jacobi_alg=1
openmp_run_results 001a-040m-040n-024p-004th: compute_time=0.065645461 s  numproc=24 numthreads=4 m=40 n=40 alpha=0.25000000000000 omega=1.00000000000000 tol=8.0000e-08 it_max=20000 jacobi_alg=1
openmp_run_results 001a-040m-040n-024p-008th: compute_time=0.059117694 s  numproc=24 numthreads=8 m=40 n=40 alpha=0.25000000000000 omega=1.00000000000000 tol=8.0000e-08 it_max=20000 jacobi_alg=1
openmp_run_results 001a-040m-040n-024p-016th: compute_time=0.068172490 s  numproc=24 numthreads=16 m=40 n=40 alpha=0.25000000000000 omega=1.00000000000000 tol=8.0000e-08 it_max=20000 jacobi_alg=1
openmp_run_results 001a-040m-040n-024p-024th: compute_time=0.078735276 s  numproc=24 numthreads=24 m=40 n=40 alpha=0.25000000000000 omega=1.00000000000000 tol=8.0000e-08 it_max=20000 jacobi_alg=1
openmp_run_results 001a-080m-080n-024p-001th: compute_time=1.105263814 s  numproc=24 numthreads=1 m=80 n=80 alpha=0.25000000000000 omega=1.00000000000000 tol=8.0000e-08 it_max=20000 jacobi_alg=1
openmp_run_results 001a-080m-080n-024p-002th: compute_time=0.768437821 s  numproc=24 numthreads=2 m=80 n=80 alpha=0.25000000000000 omega=1.00000000000000 tol=8.0000e-08 it_max=20000 jacobi_alg=1
openmp_run_results 001a-080m-080n-024p-004th: compute_time=0.556700342 s  numproc=24 numthreads=4 m=80 n=80 alpha=0.25000000000000 omega=1.00000000000000 tol=8.0000e-08 it_max=20000 jacobi_alg=1
openmp_run_results 001a-080m-080n-024p-008th: compute_time=0.340013899 s  numproc=24 numthreads=8 m=80 n=80 alpha=0.25000000000000 omega=1.00000000000000 tol=8.0000e-08 it_max=20000 jacobi_alg=1
openmp_run_results 001a-080m-080n-024p-016th: compute_time=0.322650918 s  numproc=24 numthreads=16 m=80 n=80 alpha=0.25000000000000 omega=1.00000000000000 tol=8.0000e-08 it_max=20000 jacobi_alg=1
openmp_run_results 001a-080m-080n-024p-024th: compute_time=0.331274938 s  numproc=24 numthreads=24 m=80 n=80 alpha=0.25000000000000 omega=1.00000000000000 tol=8.0000e-08 it_max=20000 jacobi_alg=1
openmp_run_results 001a-160m-160n-024p-001th: compute_time=9.184293388 s  numproc=24 numthreads=1 m=160 n=160 alpha=0.25000000000000 omega=1.00000000000000 tol=8.0000e-08 it_max=20000 jacobi_alg=1
openmp_run_results 001a-160m-160n-024p-002th: compute_time=5.171008965 s  numproc=24 numthreads=2 m=160 n=160 alpha=0.25000000000000 omega=1.00000000000000 tol=8.0000e-08 it_max=20000 jacobi_alg=1
openmp_run_results 001a-160m-160n-024p-004th: compute_time=2.787414231 s  numproc=24 numthreads=4 m=160 n=160 alpha=0.25000000000000 omega=1.00000000000000 tol=8.0000e-08 it_max=20000 jacobi_alg=1
openmp_run_results 001a-160m-160n-024p-008th: compute_time=1.522967912 s  numproc=24 numthreads=8 m=160 n=160 alpha=0.25000000000000 omega=1.00000000000000 tol=8.0000e-08 it_max=20000 jacobi_alg=1
openmp_run_results 001a-160m-160n-024p-016th: compute_time=1.356320425 s  numproc=24 numthreads=16 m=160 n=160 alpha=0.25000000000000 omega=1.00000000000000 tol=8.0000e-08 it_max=20000 jacobi_alg=1
openmp_run_results 001a-160m-160n-024p-024th: compute_time=1.155689847 s  numproc=24 numthreads=24 m=160 n=160 alpha=0.25000000000000 omega=1.00000000000000 tol=8.0000e-08 it_max=20000 jacobi_alg=1
openmp_run_results 001a-320m-320n-024p-001th: compute_time=5.186718031 s  numproc=24 numthreads=1 m=320 n=320 alpha=0.25000000000000 omega=1.00000000000000 tol=8.0000e-08 it_max=20000 jacobi_alg=1
openmp_run_results 001a-320m-320n-024p-002th: compute_time=2.851994421 s  numproc=24 numthreads=2 m=320 n=320 alpha=0.25000000000000 omega=1.00000000000000 tol=8.0000e-08 it_max=20000 jacobi_alg=1
openmp_run_results 001a-320m-320n-024p-004th: compute_time=1.449033088 s  numproc=24 numthreads=4 m=320 n=320 alpha=0.25000000000000 omega=1.00000000000000 tol=8.0000e-08 it_max=20000 jacobi_alg=1
openmp_run_results 001a-320m-320n-024p-008th: compute_time=0.770346043 s  numproc=24 numthreads=8 m=320 n=320 alpha=0.25000000000000 omega=1.00000000000000 tol=8.0000e-08 it_max=20000 jacobi_alg=1
openmp_run_results 001a-320m-320n-024p-016th: compute_time=0.653184313 s  numproc=24 numthreads=16 m=320 n=320 alpha=0.25000000000000 omega=1.00000000000000 tol=8.0000e-08 it_max=20000 jacobi_alg=1
openmp_run_results 001a-320m-320n-024p-024th: compute_time=0.485237033 s  numproc=24 numthreads=24 m=320 n=320 alpha=0.25000000000000 omega=1.00000000000000 tol=8.0000e-08 it_max=20000 jacobi_alg=1
openmp_run_results 002a-010m-010n-024p-001th: compute_time=0.000602198 s  numproc=24 numthreads=1 m=10 n=10 alpha=0.25000000000000 omega=1.00000000000000 tol=8.0000e-08 it_max=20000 jacobi_alg=2
openmp_run_results 002a-010m-010n-024p-002th: compute_time=0.001160351 s  numproc=24 numthreads=2 m=10 n=10 alpha=0.25000000000000 omega=1.00000000000000 tol=8.0000e-08 it_max=20000 jacobi_alg=2
openmp_run_results 002a-010m-010n-024p-004th: compute_time=0.001249105 s  numproc=24 numthreads=4 m=10 n=10 alpha=0.25000000000000 omega=1.00000000000000 tol=8.0000e-08 it_max=20000 jacobi_alg=2
openmp_run_results 002a-010m-010n-024p-008th: compute_time=0.001373249 s  numproc=24 numthreads=8 m=10 n=10 alpha=0.25000000000000 omega=1.00000000000000 tol=8.0000e-08 it_max=20000 jacobi_alg=2
openmp_run_results 002a-010m-010n-024p-016th: compute_time=0.002521960 s  numproc=24 numthreads=16 m=10 n=10 alpha=0.25000000000000 omega=1.00000000000000 tol=8.0000e-08 it_max=20000 jacobi_alg=2
openmp_run_results 002a-010m-010n-024p-024th: compute_time=0.011591007 s  numproc=24 numthreads=24 m=10 n=10 alpha=0.25000000000000 omega=1.00000000000000 tol=8.0000e-08 it_max=20000 jacobi_alg=2
openmp_run_results 002a-020m-020n-024p-001th: compute_time=0.007900961 s  numproc=24 numthreads=1 m=20 n=20 alpha=0.25000000000000 omega=1.00000000000000 tol=8.0000e-08 it_max=20000 jacobi_alg=2
openmp_run_results 002a-020m-020n-024p-002th: compute_time=0.009784934 s  numproc=24 numthreads=2 m=20 n=20 alpha=0.25000000000000 omega=1.00000000000000 tol=8.0000e-08 it_max=20000 jacobi_alg=2
openmp_run_results 002a-020m-020n-024p-004th: compute_time=0.007847241 s  numproc=24 numthreads=4 m=20 n=20 alpha=0.25000000000000 omega=1.00000000000000 tol=8.0000e-08 it_max=20000 jacobi_alg=2
openmp_run_results 002a-020m-020n-024p-008th: compute_time=0.008221185 s  numproc=24 numthreads=8 m=20 n=20 alpha=0.25000000000000 omega=1.00000000000000 tol=8.0000e-08 it_max=20000 jacobi_alg=2
openmp_run_results 002a-020m-020n-024p-016th: compute_time=0.011490799 s  numproc=24 numthreads=16 m=20 n=20 alpha=0.25000000000000 omega=1.00000000000000 tol=8.0000e-08 it_max=20000 jacobi_alg=2
openmp_run_results 002a-020m-020n-024p-024th: compute_time=0.011569286 s  numproc=24 numthreads=24 m=20 n=20 alpha=0.25000000000000 omega=1.00000000000000 tol=8.0000e-08 it_max=20000 jacobi_alg=2
openmp_run_results 002a-040m-040n-024p-001th: compute_time=0.102135296 s  numproc=24 numthreads=1 m=40 n=40 alpha=0.25000000000000 omega=1.00000000000000 tol=8.0000e-08 it_max=20000 jacobi_alg=2
openmp_run_results 002a-040m-040n-024p-002th: compute_time=0.083393606 s  numproc=24 numthreads=2 m=40 n=40 alpha=0.25000000000000 omega=1.00000000000000 tol=8.0000e-08 it_max=20000 jacobi_alg=2
openmp_run_results 002a-040m-040n-024p-004th: compute_time=0.064000590 s  numproc=24 numthreads=4 m=40 n=40 alpha=0.25000000000000 omega=1.00000000000000 tol=8.0000e-08 it_max=20000 jacobi_alg=2
openmp_run_results 002a-040m-040n-024p-008th: compute_time=0.051407779 s  numproc=24 numthreads=8 m=40 n=40 alpha=0.25000000000000 omega=1.00000000000000 tol=8.0000e-08 it_max=20000 jacobi_alg=2
openmp_run_results 002a-040m-040n-024p-016th: compute_time=0.048726608 s  numproc=24 numthreads=16 m=40 n=40 alpha=0.25000000000000 omega=1.00000000000000 tol=8.0000e-08 it_max=20000 jacobi_alg=2
openmp_run_results 002a-040m-040n-024p-024th: compute_time=0.058890190 s  numproc=24 numthreads=24 m=40 n=40 alpha=0.25000000000000 omega=1.00000000000000 tol=8.0000e-08 it_max=20000 jacobi_alg=2
openmp_run_results 002a-080m-080n-024p-001th: compute_time=1.128022218 s  numproc=24 numthreads=1 m=80 n=80 alpha=0.25000000000000 omega=1.00000000000000 tol=8.0000e-08 it_max=20000 jacobi_alg=2
openmp_run_results 002a-080m-080n-024p-002th: compute_time=0.773120256 s  numproc=24 numthreads=2 m=80 n=80 alpha=0.25000000000000 omega=1.00000000000000 tol=8.0000e-08 it_max=20000 jacobi_alg=2
openmp_run_results 002a-080m-080n-024p-004th: compute_time=0.552158699 s  numproc=24 numthreads=4 m=80 n=80 alpha=0.25000000000000 omega=1.00000000000000 tol=8.0000e-08 it_max=20000 jacobi_alg=2
openmp_run_results 002a-080m-080n-024p-008th: compute_time=0.326748944 s  numproc=24 numthreads=8 m=80 n=80 alpha=0.25000000000000 omega=1.00000000000000 tol=8.0000e-08 it_max=20000 jacobi_alg=2
openmp_run_results 002a-080m-080n-024p-016th: compute_time=0.266912886 s  numproc=24 numthreads=16 m=80 n=80 alpha=0.25000000000000 omega=1.00000000000000 tol=8.0000e-08 it_max=20000 jacobi_alg=2
openmp_run_results 002a-080m-080n-024p-024th: compute_time=0.250307951 s  numproc=24 numthreads=24 m=80 n=80 alpha=0.25000000000000 omega=1.00000000000000 tol=8.0000e-08 it_max=20000 jacobi_alg=2
openmp_run_results 002a-160m-160n-024p-001th: compute_time=9.314587494 s  numproc=24 numthreads=1 m=160 n=160 alpha=0.25000000000000 omega=1.00000000000000 tol=8.0000e-08 it_max=20000 jacobi_alg=2
openmp_run_results 002a-160m-160n-024p-002th: compute_time=5.277852554 s  numproc=24 numthreads=2 m=160 n=160 alpha=0.25000000000000 omega=1.00000000000000 tol=8.0000e-08 it_max=20000 jacobi_alg=2
openmp_run_results 002a-160m-160n-024p-004th: compute_time=2.808810282 s  numproc=24 numthreads=4 m=160 n=160 alpha=0.25000000000000 omega=1.00000000000000 tol=8.0000e-08 it_max=20000 jacobi_alg=2
openmp_run_results 002a-160m-160n-024p-008th: compute_time=1.535080148 s  numproc=24 numthreads=8 m=160 n=160 alpha=0.25000000000000 omega=1.00000000000000 tol=8.0000e-08 it_max=20000 jacobi_alg=2
openmp_run_results 002a-160m-160n-024p-016th: compute_time=1.292468883 s  numproc=24 numthreads=16 m=160 n=160 alpha=0.25000000000000 omega=1.00000000000000 tol=8.0000e-08 it_max=20000 jacobi_alg=2
openmp_run_results 002a-160m-160n-024p-024th: compute_time=1.091729244 s  numproc=24 numthreads=24 m=160 n=160 alpha=0.25000000000000 omega=1.00000000000000 tol=8.0000e-08 it_max=20000 jacobi_alg=2
openmp_run_results 002a-320m-320n-024p-001th: compute_time=5.261318787 s  numproc=24 numthreads=1 m=320 n=320 alpha=0.25000000000000 omega=1.00000000000000 tol=8.0000e-08 it_max=20000 jacobi_alg=2
openmp_run_results 002a-320m-320n-024p-002th: compute_time=2.895729039 s  numproc=24 numthreads=2 m=320 n=320 alpha=0.25000000000000 omega=1.00000000000000 tol=8.0000e-08 it_max=20000 jacobi_alg=2
openmp_run_results 002a-320m-320n-024p-004th: compute_time=1.408365177 s  numproc=24 numthreads=4 m=320 n=320 alpha=0.25000000000000 omega=1.00000000000000 tol=8.0000e-08 it_max=20000 jacobi_alg=2
openmp_run_results 002a-320m-320n-024p-008th: compute_time=0.893597759 s  numproc=24 numthreads=8 m=320 n=320 alpha=0.25000000000000 omega=1.00000000000000 tol=8.0000e-08 it_max=20000 jacobi_alg=2
openmp_run_results 002a-320m-320n-024p-016th: compute_time=0.642892211 s  numproc=24 numthreads=16 m=320 n=320 alpha=0.25000000000000 omega=1.00000000000000 tol=8.0000e-08 it_max=20000 jacobi_alg=2
openmp_run_results 002a-320m-320n-024p-024th: compute_time=0.509196400 s  numproc=24 numthreads=24 m=320 n=320 alpha=0.25000000000000 omega=1.00000000000000 tol=8.0000e-08 it_max=20000 jacobi_alg=2
